\relax 
\@writefile{toc}{\contentsline {section}{\numberline {1}Section 1}{1}{}\protected@file@percent }
\@writefile{toc}{\contentsline {section}{\numberline {2}Section 2}{1}{}\protected@file@percent }
\@writefile{lof}{\contentsline {figure}{\numberline {1}{\ignorespaces Impulse Response}}{1}{}\protected@file@percent }
\gdef \@abspage@last{1}
